{
  "id": "GHSA-mmph-wp49-r48h",
  "package_name": "experss",
  "package_manager": "npm",
  "vulnerable_version": "<0",
  "sources": [
    "https://nvd.nist.gov/vuln/detail/GHSA-mmph-wp49-r48h"
  ],
  "type": "PATCH"
}