{
  "id": "JS-ADMZIP-1065796",
  "package_name": "adm-zip",
  "package_manager": "npm",
  "vulnerable_version": ">=0 <0.5.2",
  "sources": [
    "https://github.com/cthackers/adm-zip/commit/119dcad6599adccc77982feb14a0c7440fa63013"
  ],
  "severity": "CVSS:3.1/AV:N/AC:H/PR:L/UI:N/S:U/C:L/I:L/A:L",
  "cwe_ids": [
    "CWE-22"
  ],
  "details": "Affected versions of this package are vulnerable to Directory Traversal. It could extract files outside the target folder.",
  "type": "NEW"
}
