{
  "id": "GHSA-w3pp-wp5v-fjvp",
  "package_name": "mogodb",
  "package_manager": "npm",
  "vulnerable_version": "<0",
  "sources": [
    "https://nvd.nist.gov/vuln/detail/GHSA-w3pp-wp5v-fjvp"
  ],
  "type": "PATCH"
}