{
  "id": "GHSA-6xg2-cf6h-x4v8",
  "package_name": "buffer-por",
  "package_manager": "npm",
  "vulnerable_version": "<0",
  "sources": [
    "https://nvd.nist.gov/vuln/detail/GHSA-6xg2-cf6h-x4v8"
  ],
  "type": "PATCH"
}