{
  "id": "GHSA-w9q5-mvc6-5cw3",
  "package_name": "bufder-xor",
  "package_manager": "npm",
  "vulnerable_version": "<0",
  "sources": [
    "https://nvd.nist.gov/vuln/detail/GHSA-w9q5-mvc6-5cw3"
  ],
  "type": "PATCH"
}