{
  "id": "GHSA-gqq4-937c-2282",
  "package_name": "juffer-xor",
  "package_manager": "npm",
  "vulnerable_version": "<0",
  "sources": [
    "https://nvd.nist.gov/vuln/detail/GHSA-gqq4-937c-2282"
  ],
  "type": "PATCH"
}