{
  "id": "GHSA-jqvv-r4w3-8f7w",
  "package_name": "bictoind-rpc",
  "package_manager": "npm",
  "vulnerable_version": "<0",
  "sources": [
    "https://nvd.nist.gov/vuln/detail/GHSA-jqvv-r4w3-8f7w"
  ],
  "type": "PATCH"
}