{
  "id": "GHSA-5x8q-gj67-rhf2",
  "package_name": "discord_debug_log",
  "package_manager": "npm",
  "vulnerable_version": "<0",
  "sources": [
    "https://nvd.nist.gov/vuln/detail/GHSA-5x8q-gj67-rhf2"
  ],
  "type": "PATCH"
}