{
  "id": "NPM-CITYWEATHERABE-20170521",
  "package_name": "city-weather-abe",
  "package_manager": "npm",
  "vulnerable_version": ">=0 <=0.1.1",
  "sources": [
    "https://github.com/JacksonGL/NPM-Vuln-PoC/tree/master/directory-traversal/city-weather-abe"
  ],
  "severity": "CVSS:3.1/AV:N/AC:H/PR:L/UI:N/S:U/C:L/I:L/A:L",
  "cwe_ids": [
    "CWE-22"
  ],
  "details": "Affected versions of the package are vulnerable to Directory Traversal, which may allow access to sensitive files and data on the server. For example, requesting the following url /..%2f..%2fetc/passwd would result in /etc/passwd leak.",
  "type": "NEW"
}
