{
  "id": "GHSA-5ggx-g294-qj3q",
  "package_name": "buffeb-xor",
  "package_manager": "npm",
  "vulnerable_version": "<0",
  "sources": [
    "https://nvd.nist.gov/vuln/detail/GHSA-5ggx-g294-qj3q"
  ],
  "type": "PATCH"
}