{
  "id": "GHSA-28f4-mjfq-qrvf",
  "package_name": "buffes-xor",
  "package_manager": "npm",
  "vulnerable_version": "<0",
  "sources": [
    "https://nvd.nist.gov/vuln/detail/GHSA-28f4-mjfq-qrvf"
  ],
  "type": "PATCH"
}