{
  "id": "GHSA-qv2g-99x4-45x6",
  "package_name": "discord-fix",
  "package_manager": "npm",
  "vulnerable_version": "<0",
  "sources": [
    "https://nvd.nist.gov/vuln/detail/GHSA-qv2g-99x4-45x6"
  ],
  "type": "PATCH"
}