{
  "id": "GHSA-mfc2-93pr-jf92",
  "package_manager": "npm",
  "package_name": "loadyaml",
  "sources": [
    "https://nvd.nist.gov/vuln/detail/GHSA-mfc2-93pr-jf92"
  ],
  "type": "PATCH",
  "vulnerable_version": "<0"
}
