{
  "id": "GHSA-hwh3-fhf6-73x9",
  "package_name": "bictoinjs-lib",
  "package_manager": "npm",
  "vulnerable_version": "<0",
  "sources": [
    "https://nvd.nist.gov/vuln/detail/GHSA-hwh3-fhf6-73x9"
  ],
  "type": "PATCH"
}