{
  "id": "GHSA-w8fh-pvq2-x8c4",
  "package_name": "sonatype",
  "package_manager": "npm",
  "vulnerable_version": "<0",
  "sources": [
    "https://nvd.nist.gov/vuln/detail/GHSA-w8fh-pvq2-x8c4"
  ],
  "type": "PATCH"
}