{
  "id": "GHSA-wxrm-2h86-v95f",
  "package_name": "pizza-pasta",
  "package_manager": "npm",
  "vulnerable_version": "<0",
  "sources": [
    "https://nvd.nist.gov/vuln/detail/GHSA-wxrm-2h86-v95f"
  ],
  "type": "PATCH"
}