{
  "id": "GHSA-qm4q-f956-fg64",
  "package_name": "luna-mock",
  "package_manager": "npm",
  "vulnerable_version": "<0",
  "sources": [
    "https://nvd.nist.gov/vuln/detail/GHSA-qm4q-f956-fg64"
  ],
  "type": "PATCH"
}