{
  "id": "GHSA-9hc2-w9gg-q6jw",
  "package_name": "boogeyman",
  "package_manager": "npm",
  "vulnerable_version": "<0",
  "sources": [
    "https://nvd.nist.gov/vuln/detail/GHSA-9hc2-w9gg-q6jw"
  ],
  "type": "PATCH"
}