{
  "$schema": "http://json-schema.org/draft-07/schema#",
  "additionalProperties": false,
  "definitions": {
    "attributeFilter": {
      "additionalProperties": false,
      "maxProperties": 1,
      "patternProperties": {
        "^(BOOL|N|S)$": {
          "oneOf": [
            {
              "items": {
                "oneOf": [
                  {
                    "type": "boolean"
                  },
                  {
                    "type": "number"
                  },
                  {
                    "additionalProperties": false,
                    "maxProperties": 1,
                    "properties": {
                      "anything-but": {
                        "items": {
                          "oneOf": [
                            {
                              "type": "boolean"
                            },
                            {
                              "type": "number"
                            },
                            {
                              "type": "string"
                            }
                          ]
                        },
                        "type": "array"
                      },
                      "exists": {
                        "type": "boolean"
                      },
                      "prefix": {
                        "type": "string"
                      }
                    },
                    "type": "object"
                  },
                  {
                    "type": "string"
                  }
                ]
              },
              "type": "array"
            },
            {
              "type": "null"
            }
          ]
        }
      },
      "type": "object"
    },
    "pattern": {
      "additionalProperties": false,
      "minProperties": 1,
      "properties": {
        "dynamodb": {
          "additionalProperties": false,
          "minProperties": 1,
          "properties": {
            "Keys": {
              "additionalProperties": false,
              "properties": {
                "pk": {
                  "$ref": "#/definitions/attributeFilter"
                },
                "sk": {
                  "$ref": "#/definitions/attributeFilter"
                }
              },
              "type": "object"
            },
            "NewImage": {
              "additionalProperties": false,
              "patternProperties": {
                "^[a-zA-Z_]+$": {
                  "$ref": "#/definitions/attributeFilter"
                }
              },
              "type": "object"
            },
            "OldImage": {
              "additionalProperties": false,
              "patternProperties": {
                "^[a-zA-Z_]+$": {
                  "$ref": "#/definitions/attributeFilter"
                }
              },
              "type": "object"
            }
          },
          "title": "https://docs.aws.amazon.com/amazondynamodb/latest/developerguide/Streams.Lambda.Tutorial2.html",
          "type": "object"
        },
        "eventName": {
          "items": {
            "pattern": "^(INSERT|MODIFY|REMOVE)$",
            "type": "string"
          },
          "minItems": 1,
          "type": "array"
        }
      },
      "type": "object"
    }
  },
  "patternProperties": {
    "\\$schema": {
      "type": "string"
    },
    "^[a-z_]+$": {
      "additionalProperties": false,
      "properties": {
        "batch_size": {
          "default": 100,
          "title": "Maximum number of records that this handler will process per invocation.",
          "type": "integer"
        },
        "batch_window": {
          "default": 0,
          "maximum": 300,
          "minimum": 0,
          "title": "Maximum amount of time to gather records before invoking the function, in seconds.",
          "type": "integer"
        },
        "enabled": {
          "default": true,
          "title": "Whether this handler is enabled.",
          "type": "boolean"
        },
        "filters": {
          "default": [],
          "items": {
            "$ref": "#/definitions/pattern"
          },
          "maxItems": 5,
          "minItems": 1,
          "title": "Criteria that determines which records are processed by this handler.",
          "type": "array"
        },
        "handler": {
          "default": "",
          "title": "Function entrypoint in the code (package.file.function).",
          "type": "string"
        },
        "memory_size": {
          "default": 512,
          "title": "The amount of memory in MB the handler can use at runtime.",
          "type": "integer"
        },
        "reserved_concurrency": {
          "default": -1,
          "minimum": -1,
          "title": "The maximum amount of concurrent executions for this handler.",
          "type": "integer"
        },
        "timeout": {
          "default": 60,
          "title": "The maximum amount of time the handler has to run (in seconds).",
          "type": "integer"
        },
        "uses_vpc": {
          "default": false,
          "title": "Allows the handler to reach services within the VPC.",
          "type": "boolean"
        }
      },
      "required": [
        "batch_size",
        "batch_window",
        "enabled",
        "filters",
        "handler",
        "memory_size",
        "reserved_concurrency",
        "timeout",
        "uses_vpc"
      ],
      "type": "object"
    }
  },
  "type": "object"
}
