{
  "id": "GHSA-qj3g-wfr7-3cv7",
  "package_name": "require-ports",
  "package_manager": "npm",
  "vulnerable_version": "<0",
  "sources": [
    "https://nvd.nist.gov/vuln/detail/GHSA-qj3g-wfr7-3cv7"
  ],
  "type": "PATCH"
}