{
  "id": "GHSA-4xg9-g7qj-jhg4",
  "package_name": "comander",
  "package_manager": "npm",
  "vulnerable_version": "<0",
  "sources": [
    "https://nvd.nist.gov/vuln/detail/GHSA-4xg9-g7qj-jhg4"
  ],
  "type": "PATCH"
}