{
  "id": "GHSA-qjfh-xc44-rm9x",
  "package_name": "file-static-server",
  "package_manager": "npm",
  "vulnerable_version": ">=0 <=1.0.2",
  "sources": [
    "https://nvd.nist.gov/vuln/detail/GHSA-qjfh-xc44-rm9x"
  ],
  "type": "PATCH"
}