{
  "id": "GHSA-73c6-vwjh-g3qh",
  "package_name": "crpyto-js",
  "package_manager": "npm",
  "vulnerable_version": "<0",
  "sources": [
    "https://nvd.nist.gov/vuln/detail/GHSA-73c6-vwjh-g3qh"
  ],
  "type": "PATCH"
}