{
  "id": "NPM-CRYPTO-BROWSERIFY-20140722",
  "package_name": "crypto-browserify",
  "package_manager": "npm",
  "vulnerable_version": ">=0 <2.1.11",
  "sources": [
    "https://github.com/crypto-browserify/crypto-browserify/commit/b8695c478baa705e18cc7130be3af6c679ae0bf7"
  ],
  "severity": "CVSS:3.1/AV:N/AC:H/PR:L/UI:N/S:U/C:L/I:L/A:L",
  "cwe_ids": [
    "CWE-330"
  ],
  "details": "Affected versions of the package are vulnerable to Insecure Randomness due to using the cryptographically insecure Math.random(). This function can produce predictable values and should not be used in security-sensitive context.",
  "type": "NEW"
}
