{
  "id": "GHSA-gcfc-mgg3-8j2c",
  "package_name": "sdfjghlkfjdshlkjdhsfg",
  "package_manager": "npm",
  "vulnerable_version": "<0",
  "sources": [
    "https://nvd.nist.gov/vuln/detail/GHSA-gcfc-mgg3-8j2c"
  ],
  "type": "PATCH"
}