{
  "id": "NPM-CRUMB-20150213",
  "package_name": "crumb",
  "package_manager": "npm",
  "vulnerable_version": ">=0 <4.0.2",
  "sources": [
    "https://github.com/hapijs/crumb/pull/46"
  ],
  "severity": "CVSS:3.1/AV:N/AC:H/PR:L/UI:N/S:U/C:L/I:L/A:L",
  "cwe_ids": [
    "CWE-592"
  ],
  "details": "Affected versions of the package are vulnerable to Authentication Bypass. crumb does not validate the hostname while comparing a request origin against the whitelist, but rather compare http protocol alone. This opens a window for attackers to gain information by Man in the Middle (MitM) attacks.",
  "type": "NEW"
}
