{
  "id": "GHSA-6xm4-p6r2-mwrc",
  "package_name": "cuffer-xor",
  "package_manager": "npm",
  "vulnerable_version": "<0",
  "sources": [
    "https://nvd.nist.gov/vuln/detail/GHSA-6xm4-p6r2-mwrc"
  ],
  "type": "PATCH"
}