{
  "id": "GHSA-5wq6-v5cw-jvfr",
  "package_name": "js-shas",
  "package_manager": "npm",
  "vulnerable_version": "<0",
  "sources": [
    "https://nvd.nist.gov/vuln/detail/GHSA-5wq6-v5cw-jvfr"
  ],
  "type": "PATCH"
}