{
  "id": "GHSA-4hjg-w3ww-38c6",
  "package_name": "tiar",
  "package_manager": "npm",
  "vulnerable_version": "<0",
  "sources": [
    "https://nvd.nist.gov/vuln/detail/GHSA-4hjg-w3ww-38c6"
  ],
  "type": "PATCH"
}