{
  "id": "GHSA-8jf2-cq6v-w234",
  "package_name": "uglyfi.js",
  "package_manager": "npm",
  "vulnerable_version": "<0",
  "sources": [
    "https://nvd.nist.gov/vuln/detail/GHSA-8jf2-cq6v-w234"
  ],
  "type": "PATCH"
}