{
  "id": "DOTNET-MICROSOFTIDENTITYMODELTOKENS-60016",
  "package_name": "microsoft.identitymodel.tokens",
  "package_manager": "nuget",
  "vulnerable_version": ">=0 <5.1.1",
  "sources": [
    "https://technet.microsoft.com/library/security/3214296"
  ],
  "severity": "CVSS:3.1/AV:N/AC:H/PR:L/UI:N/S:U/C:L/I:L/A:L",
  "cwe_ids": [
    "CWE-265"
  ],
  "details": "Affected versions of this package are vulnerable to Privilege Escalation. A security vulnerability in the public version of Microsoft.IdentityModel.Tokens 5.1.0 where tokens signed with symmetric keys could be vulnerable to tampering.",
  "type": "NEW"
}
