{
  "id": "JS-UNSETVALUE-2400660",
  "package_name": "unset-value",
  "package_manager": "npm",
  "vulnerable_version": ">=0 <2.0.1",
  "sources": [
    "https://github.com/jonschlinkert/unset-value/pull/12"
  ],
  "severity": "CVSS:3.1/AV:N/AC:H/PR:L/UI:N/S:U/C:L/I:L/A:L",
  "cwe_ids": [
    "CWE-1321"
  ],
  "details": "Affected versions of this package are vulnerable to Prototype Pollution via the unset function in index.js, because it allows access to object prototype properties.",
  "type": "NEW"
}
