{
  "id": "JS-HTTPAUTH-471683",
  "package_name": "http-auth",
  "package_manager": "npm",
  "vulnerable_version": ">=0 <3.2.4",
  "sources": [
    "https://github.com/http-auth/http-auth/issues/95"
  ],
  "severity": "CVSS:3.1/AV:N/AC:H/PR:L/UI:N/S:U/C:L/I:L/A:L",
  "cwe_ids": [
    "CWE-294"
  ],
  "details": "Affected versions of this package are vulnerable to Authentication Bypass. If a client specifies large nonceCount then this request can be replayed nonceCount - serverNonce[2] times.",
  "type": "NEW"
}
