{
  "id": "GHSA-jw37-5gqr-cf9j",
  "package_name": "ftp-srv",
  "package_manager": "npm",
  "vulnerable_version": ">=0 <2.19.6 || >=3.0.0 <3.1.2 || >=4.0.0 <4.3.4",
  "sources": [
    "https://nvd.nist.gov/vuln/detail/GHSA-jw37-5gqr-cf9j"
  ],
  "type": "PATCH"
}