{
  "id": "GHSA-8qx4-r7fx-xc4v",
  "package_name": "requst",
  "package_manager": "npm",
  "vulnerable_version": "<0",
  "sources": [
    "https://nvd.nist.gov/vuln/detail/GHSA-8qx4-r7fx-xc4v"
  ],
  "type": "PATCH"
}