{
  "id": "PYTHON-NETWORKX-1062709",
  "package_name": "networkx",
  "package_manager": "pip",
  "vulnerable_version": ">=0 <2.6",
  "sources": [
    "https://github.com/networkx/networkx/pull/4541"
  ],
  "severity": "CVSS:3.1/AV:N/AC:L/PR:N/UI:R/S:U/C:H/I:H/A:H",
  "cwe_ids": [
    "CWE-502"
  ],
  "details": "Affected versions of this package are vulnerable to Deserialization of Untrusted Data. This package is vulnerable to arbitrary code execution via insecure YAML deserialization due to the use of a known vulnerable function load() in yaml, which is called in read_yaml() in networkx/readwrite/nx_yaml.py",
  "type": "NEW"
}
