{
  "id": "GHSA-855m-jchh-9qjc",
  "package_name": "commnader",
  "package_manager": "npm",
  "vulnerable_version": "<0",
  "sources": [
    "https://nvd.nist.gov/vuln/detail/GHSA-855m-jchh-9qjc"
  ],
  "type": "PATCH"
}