{
  "id": "GHSA-qj2g-642f-4jrv",
  "package_name": "carloprojectlesang",
  "package_manager": "npm",
  "vulnerable_version": "<0",
  "sources": [
    "https://nvd.nist.gov/vuln/detail/GHSA-qj2g-642f-4jrv"
  ],
  "type": "PATCH"
}