{
  "id": "GHSA-wwrj-35w6-77ff",
  "package_name": "save-server",
  "package_manager": "npm",
  "vulnerable_version": ">=0 <1.0.5",
  "sources": [
    "https://nvd.nist.gov/vuln/detail/GHSA-wwrj-35w6-77ff"
  ],
  "type": "PATCH"
}