{
  "id": "DOTNET-MICROSOFTASPNETCOREALL-60258",
  "package_name": "microsoft.aspnetcore.all",
  "package_manager": "nuget",
  "vulnerable_version": ">=0 <2.0.9 || >=2.1.0 <2.1.2",
  "sources": [
    "https://github.com/aspnet/Announcements/issues/311"
  ],
  "severity": "CVSS:3.1/AV:N/AC:H/PR:L/UI:N/S:U/C:L/I:L/A:L",
  "cwe_ids": [
    "CWE-400"
  ],
  "details": "Affected versions of microsoft.aspnetcore.all are vulnerable to Denial of Service (DoS) via a malformed request, sent by an attacker.",
  "type": "NEW"
}
